Final_project_frekvensanalyse
…
#We make a context specific stopwordlist and add the words, that aren't included in the 'da' package

stopord_nytaarstaler <- tibble(word = c("kan", "år", "så", "ved", "må", "nye", "mere", "godt", "andre", "gøre", "kommer", "får", "store", "vort", "hele", "uden", "andet", "fordi", "går", "ingen", "derfor", "endnu", "enkelte", "hver", "lad", "kan", "kun"))

#We subtract the stopwords from the speeches. Both the installed and the selfdefined, after which we count the frequency of the remaining words in the speeches marked as 'kriser' og 'crisies'

kriser_tidy %>%
  anti_join(stopord) %>%
  anti_join(stopord_nytaarstaler) %>%
  count(word, sort = TRUE) 

## Joining with `by = join_by(word)`
## Joining with `by = join_by(word)`

## # A tibble: 1,969 × 2
##    word           n
##    <chr>      <int>
##  1 danmark       35
##  2 verden        21
##  3 samfund       19
##  4 danske        18
##  5 vores         17
##  6 regeringen    15
##  7 sammen        15
##  8 frihed        13
##  9 gang          13
## 10 land          13
## # ℹ 1,959 more rows

#We repeat the same process with the dataset 'ikke_kriser' or 'not_crisies'

ikke_kriser_tidy %>%
  anti_join(stopord) %>%
  anti_join(stopord_nytaarstaler) %>%
  count(word, sort = TRUE) 

## Joining with `by = join_by(word)`
## Joining with `by = join_by(word)`

## # A tibble: 2,268 × 2
##    word               n
##    <chr>          <int>
##  1 danmark           40
##  2 dansk             19
##  3 danske            18
##  4 verden            18
##  5 vores             18
##  6 bedre             17
##  7 land              17
##  8 står              17
##  9 internationale    15
## 10 samarbejde        15
## # ℹ 2,258 more rows
…
